# Glass project - (c)2019 Jean Varnoux
mtllib Document.mtl

v -23.3430020870012 21.6322243440985 -97.0554
v -23.3430020870012 21.6322243440985 -2.9446
v -9.59710208700125 218.207624344099 -2.9446
v -9.59710208700125 218.207624344099 -97.0554
v -23.3430020870012 21.6322243440985 102.9446
v -23.3430020870012 21.6322243440985 200
v -9.59710208700125 218.207624344099 200
v -9.59710208700125 218.207624344099 102.9446
v -23.3430020870012 21.6322243440985 2.9446
v -23.3430020870012 21.6322243440985 97.0554
v -9.59710208700125 218.207624344099 97.0554
v -9.59710208700125 218.207624344099 2.9446
v 4.55959791299875 420.657824344099 -102.9446
v 4.55959791299875 420.657824344099 -200
v -9.18630208700125 224.082524344099 -200
v -9.18630208700125 224.082524344099 -102.9446
v -9.18630208700125 224.082524344099 -2.9446
v 4.55959791299875 420.657824344099 -2.9446
v 4.55959791299875 420.657824344099 -97.0554
v -9.18630208700125 224.082524344099 -97.0554
v -9.18630208700125 224.082524344099 200
v 4.55959791299875 420.657824344099 200
v 4.55959791299875 420.657824344099 102.9446
v -9.18630208700125 224.082524344099 102.9446
v -9.18630208700125 224.082524344099 97.0554
v 4.55959791299875 420.657824344099 97.0554
v 4.55959791299875 420.657824344099 2.9446
v -9.18630208700125 224.082524344099 2.9446
v -9.59710208700125 218.207624344099 -200
v -23.3430020870012 21.6322243440985 -200
v -23.3430020870012 21.6322243440985 -102.9446
v -9.59710208700125 218.207624344099 -102.9446
v -22.9439776087516 21.6043054301232 -97.0554
v -22.9439776087516 21.6043054301232 -2.9446
v -9.19807760875156 218.179705430123 -2.9446
v -9.19807760875156 218.179705430123 -97.0554
v -22.9439776087516 21.6043054301232 102.9446
v -22.9439776087516 21.6043054301232 200
v -9.19807760875156 218.179705430123 200
v -9.19807760875156 218.179705430123 102.9446
v -22.9439776087516 21.6043054301232 2.9446
v -22.9439776087516 21.6043054301232 97.0554
v -9.19807760875156 218.179705430123 97.0554
v -9.19807760875156 218.179705430123 2.9446
v 4.95862239124844 420.629905430123 -102.9446
v 4.95862239124844 420.629905430123 -200
v -8.78727760875156 224.054605430123 -200
v -8.78727760875156 224.054605430123 -102.9446
v -8.78727760875156 224.054605430123 -2.9446
v 4.95862239124844 420.629905430123 -2.9446
v 4.95862239124844 420.629905430123 -97.0554
v -8.78727760875156 224.054605430123 -97.0554
v -8.78727760875156 224.054605430123 200
v 4.95862239124844 420.629905430123 200
v 4.95862239124844 420.629905430123 102.9446
v -8.78727760875156 224.054605430123 102.9446
v -8.78727760875156 224.054605430123 97.0554
v 4.95862239124844 420.629905430123 97.0554
v 4.95862239124844 420.629905430123 2.9446
v -8.78727760875156 224.054605430123 2.9446
v -9.19807760875156 218.179705430123 -200
v -22.9439776087516 21.6043054301232 -200
v -22.9439776087516 21.6043054301232 -102.9446
v -9.19807760875156 218.179705430123 -102.9446
v -21.3478796957528 21.4926297742217 -97.0554
v -21.3478796957528 21.4926297742217 -2.9446
v -7.60197969575281 218.068029774222 -2.9446
v -7.60197969575281 218.068029774222 -97.0554
v -21.3478796957528 21.4926297742217 102.9446
v -21.3478796957528 21.4926297742217 200
v -7.60197969575281 218.068029774222 200
v -7.60197969575281 218.068029774222 102.9446
v -21.3478796957528 21.4926297742217 2.9446
v -21.3478796957528 21.4926297742217 97.0554
v -7.60197969575281 218.068029774222 97.0554
v -7.60197969575281 218.068029774222 2.9446
v 6.55472030424719 420.518229774222 -102.9446
v 6.55472030424719 420.518229774222 -200
v -7.19117969575281 223.942929774222 -200
v -7.19117969575281 223.942929774222 -102.9446
v -7.19117969575281 223.942929774222 -2.9446
v 6.55472030424719 420.518229774222 -2.9446
v 6.55472030424719 420.518229774222 -97.0554
v -7.19117969575281 223.942929774222 -97.0554
v -7.19117969575281 223.942929774222 200
v 6.55472030424719 420.518229774222 200
v 6.55472030424719 420.518229774222 102.9446
v -7.19117969575281 223.942929774222 102.9446
v -7.19117969575281 223.942929774222 97.0554
v 6.55472030424719 420.518229774222 97.0554
v 6.55472030424719 420.518229774222 2.9446
v -7.19117969575281 223.942929774222 2.9446
v -7.60197969575281 218.068029774222 -200
v -21.3478796957528 21.4926297742217 -200
v -21.3478796957528 21.4926297742217 -102.9446
v -7.60197969575281 218.068029774222 -102.9446
v -20.9488552175031 21.4647108602463 -97.0554
v -20.9488552175031 21.4647108602463 -2.9446
v -7.20295521750312 218.040110860246 -2.9446
v -7.20295521750312 218.040110860246 -97.0554
v -20.9488552175031 21.4647108602463 102.9446
v -20.9488552175031 21.4647108602463 200
v -7.20295521750312 218.040110860246 200
v -7.20295521750312 218.040110860246 102.9446
v -20.9488552175031 21.4647108602463 2.9446
v -20.9488552175031 21.4647108602463 97.0554
v -7.20295521750312 218.040110860246 97.0554
v -7.20295521750312 218.040110860246 2.9446
v 6.95374478249688 420.490310860246 -102.9446
v 6.95374478249688 420.490310860246 -200
v -6.79215521750312 223.915010860246 -200
v -6.79215521750312 223.915010860246 -102.9446
v -6.79215521750312 223.915010860246 -2.9446
v 6.95374478249688 420.490310860246 -2.9446
v 6.95374478249688 420.490310860246 -97.0554
v -6.79215521750312 223.915010860246 -97.0554
v -6.79215521750312 223.915010860246 200
v 6.95374478249688 420.490310860246 200
v 6.95374478249688 420.490310860246 102.9446
v -6.79215521750312 223.915010860246 102.9446
v -6.79215521750312 223.915010860246 97.0554
v 6.95374478249688 420.490310860246 97.0554
v 6.95374478249688 420.490310860246 2.9446
v -6.79215521750312 223.915010860246 2.9446
v -7.20295521750312 218.040110860246 -200
v -20.9488552175031 21.4647108602463 -200
v -20.9488552175031 21.4647108602463 -102.9446
v -7.20295521750312 218.040110860246 -102.9446
# 128 vertices

vn -0.9976 0.0698 0
vn 0.9976 -0.0698 0
vn 0 0 -1
vn -0.0697565543635165 -0.997564044622364 0
vn -0.0308214874929236 -0.44076729427449 -0.897092095721877
vn 0.0697565543635165 0.997564044622364 0
vn 0 0 1
vn 0 0 -1
vn -0.0697565543635165 -0.997564044622364 0
vn -0.0300622557969097 -0.42990978778794 -0.902371229118332
vn 0.0697565543635165 0.997564044622364 0
vn 0 0 1
vn 0 0 -1
vn -0.0697565543635165 -0.997564044622364 -2.92971526359889E-17
vn -0.0308214874929236 -0.44076729427449 0.897092095721877
vn 1.83025039245653E-17 2.92840062793044E-16 -1
vn 0.0697565543635165 0.997564044622364 0
vn -0.0697565543635165 -0.997564044622364 0
vn -2.74537558868479E-17 0 1
vn 0.0300622281862527 0.429909611637208 -0.902371313960291
vn 0 0 1
vn -0.0697565190502876 -0.997564047091708 0
vn 0.0697565190502876 0.997564047091708 0
vn 0 -7.55006583474054E-17 -1
vn 0.0308214593331723 0.44076711579468 -0.897092184381635
vn 0 0 1
vn -0.0697565190502876 -0.997564047091708 0
vn 0.0697565190502876 0.997564047091708 0
vn 0 -7.3210015698261E-17 -1
vn 0.0300622281862527 0.429909611637208 -0.902371313960291
vn 0 0 1
vn -0.0697565190502876 -0.997564047091708 0
vn 0.0697565190502876 0.997564047091708 0
vn 0 -7.55006583474054E-17 -1
vn -0.9976 0.0698 0
vn 0.9976 -0.0698 0
vn 0 0 -1
vn -0.0697565543635165 -0.997564044622364 0
vn -0.0308214874929237 -0.44076729427449 -0.897092095721877
vn 0.0697565543635165 0.997564044622364 0
vn 0 0 1
vn 0 0 -1
vn -0.0697565543635165 -0.997564044622364 0
vn -0.0300622557969097 -0.429909787787941 -0.902371229118332
vn 0.0697565543635165 0.997564044622364 0
vn 0 0 1
vn 0 0 -1
vn -0.0697565543635165 -0.997564044622364 -2.9297152635989E-17
vn -0.0308214874929236 -0.440767294274489 0.897092095721877
vn 1.83025039245653E-17 2.92840062793044E-16 -1
vn 0.0697565543635165 0.997564044622364 0
vn -0.0697565543635165 -0.997564044622364 0
vn -1.83025039245653E-17 0 1
vn 0.0300622281862527 0.429909611637208 -0.902371313960291
vn 9.43758229342568E-18 0 1
vn -0.0697565190502876 -0.997564047091708 0
vn 0.0697565190502876 0.997564047091708 0
vn 0 1.13250987521108E-16 -1
vn 0.0308214593331723 0.44076711579468 -0.897092184381635
vn 9.15125196228263E-18 0 1
vn -0.0697565190502876 -0.997564047091708 0
vn 0.0697565190502876 0.997564047091708 0
vn 0 1.09815023547392E-16 -1
vn 0.0300622281862527 0.429909611637208 -0.902371313960291
vn 9.43758229342568E-18 0 1
vn -0.0697565190502876 -0.997564047091708 0
vn 0.0697565190502876 0.997564047091708 0
vn 0 1.13250987521108E-16 -1
# 68 vertex normals

g Face1
usemtl wire_214229166
f 1//1 2//1 3//1
f 1//1 3//1 4//1
f 5//1 6//1 7//1
f 5//1 7//1 8//1
f 9//1 10//1 11//1
f 9//1 11//1 12//1
f 13//1 14//1 15//1
f 13//1 15//1 16//1
f 17//1 18//1 19//1
f 17//1 19//1 20//1
f 21//1 22//1 23//1
f 21//1 23//1 24//1
f 25//1 26//1 27//1
f 25//1 27//1 28//1
f 29//1 30//1 31//1
f 29//1 31//1 32//1
# 16 polygons

g Face2
usemtl wire_214229166
f 34//2 33//2 35//2
f 35//2 33//2 36//2
f 38//2 37//2 39//2
f 39//2 37//2 40//2
f 42//2 41//2 43//2
f 43//2 41//2 44//2
f 46//2 45//2 47//2
f 47//2 45//2 48//2
f 50//2 49//2 51//2
f 51//2 49//2 52//2
f 54//2 53//2 55//2
f 55//2 53//2 56//2
f 58//2 57//2 59//2
f 59//2 57//2 60//2
f 62//2 61//2 63//2
f 63//2 61//2 64//2
# 16 polygons

g Face3
usemtl wire_214229166
f 65//35 66//35 67//35
f 65//35 67//35 68//35
f 69//35 70//35 71//35
f 69//35 71//35 72//35
f 73//35 74//35 75//35
f 73//35 75//35 76//35
f 77//35 78//35 79//35
f 77//35 79//35 80//35
f 81//35 82//35 83//35
f 81//35 83//35 84//35
f 85//35 86//35 87//35
f 85//35 87//35 88//35
f 89//35 90//35 91//35
f 89//35 91//35 92//35
f 93//35 94//35 95//35
f 93//35 95//35 96//35
# 16 polygons

g Face4
usemtl wire_214229166
f 98//36 97//36 99//36
f 99//36 97//36 100//36
f 102//36 101//36 103//36
f 103//36 101//36 104//36
f 106//36 105//36 107//36
f 107//36 105//36 108//36
f 110//36 109//36 111//36
f 111//36 109//36 112//36
f 114//36 113//36 115//36
f 115//36 113//36 116//36
f 118//36 117//36 119//36
f 119//36 117//36 120//36
f 122//36 121//36 123//36
f 123//36 121//36 124//36
f 126//36 125//36 127//36
f 127//36 125//36 128//36
# 16 polygons

g Edges
usemtl wire_214229166
f 61//3 64//3 32//3 29//3
f 64//4 63//4 31//4 32//4
f 62//5 61//5 29//5 30//5
f 63//5 62//5 30//5 31//5
f 57//7 60//7 28//7 25//7
f 60//8 59//8 27//8 28//8
f 58//9 57//9 25//9 26//9
f 59//9 58//9 26//9 27//9
f 53//11 56//11 24//11 21//11
f 56//12 55//12 23//12 24//12
f 54//13 53//13 21//13 22//13
f 55//13 54//13 22//13 23//13
f 49//15 52//15 20//15 17//15
f 52//16 51//16 19//16 20//16
f 50//17 49//17 17//17 18//17
f 51//17 50//17 18//17 19//17
f 45//19 48//19 16//19 13//19
f 48//20 47//20 15//20 16//20
f 46//21 45//21 13//21 14//21
f 47//21 46//21 14//21 15//21
f 41//23 44//23 12//23 9//23
f 44//24 43//24 11//24 12//24
f 42//25 41//25 9//25 10//25
f 43//25 42//25 10//25 11//25
f 37//27 40//27 8//27 5//27
f 40//28 39//28 7//28 8//28
f 38//29 37//29 5//29 6//29
f 39//29 38//29 6//29 7//29
f 33//31 36//31 4//31 1//31
f 36//32 35//32 3//32 4//32
f 34//33 33//33 1//33 2//33
f 35//33 34//33 2//33 3//33
f 125//37 128//37 96//37 93//37
f 128//38 127//38 95//38 96//38
f 126//39 125//39 93//39 94//39
f 127//39 126//39 94//39 95//39
f 121//41 124//41 92//41 89//41
f 124//42 123//42 91//42 92//42
f 122//43 121//43 89//43 90//43
f 123//43 122//43 90//43 91//43
f 117//45 120//45 88//45 85//45
f 120//46 119//46 87//46 88//46
f 118//47 117//47 85//47 86//47
f 119//47 118//47 86//47 87//47
f 113//49 116//49 84//49 81//49
f 116//50 115//50 83//50 84//50
f 114//51 113//51 81//51 82//51
f 115//51 114//51 82//51 83//51
f 109//53 112//53 80//53 77//53
f 112//54 111//54 79//54 80//54
f 110//55 109//55 77//55 78//55
f 111//55 110//55 78//55 79//55
f 105//57 108//57 76//57 73//57
f 108//58 107//58 75//58 76//58
f 106//59 105//59 73//59 74//59
f 107//59 106//59 74//59 75//59
f 101//61 104//61 72//61 69//61
f 104//62 103//62 71//62 72//62
f 102//63 101//63 69//63 70//63
f 103//63 102//63 70//63 71//63
f 97//65 100//65 68//65 65//65
f 100//66 99//66 67//66 68//66
f 98//67 97//67 65//67 66//67
f 99//67 98//67 66//67 67//67
# 64 polygons

